<?xml version="1.0" encoding="utf-8"?>
<!-- Generator: Adobe Illustrator 21.1.0, SVG Export Plug-In . SVG Version: 6.00 Build 0)  -->
<svg version="1.1" xmlns="http://www.w3.org/2000/svg" xmlns:xlink="http://www.w3.org/1999/xlink" x="0px" y="0px"
	 viewBox="0 0 450 288" style="enable-background:new 0 0 450 288;" xml:space="preserve">
<style type="text/css">
	.st0{fill:#FFFFFF;stroke:#969696;stroke-width:1.25;stroke-linecap:round;stroke-linejoin:round;stroke-miterlimit:10;}
	.st1{fill:none;stroke:#969696;stroke-width:1.25;stroke-linecap:round;stroke-linejoin:round;stroke-miterlimit:10;}
	.st2{fill:none;stroke:#969696;stroke-width:1.5;stroke-linecap:round;stroke-linejoin:round;stroke-miterlimit:10;}
	
		.st3{fill-rule:evenodd;clip-rule:evenodd;fill:#FFFFFF;stroke:#969696;stroke-width:1.25;stroke-linecap:round;stroke-linejoin:round;stroke-miterlimit:10;}
	.st4{fill:none;stroke:#969696;stroke-width:1.25;stroke-linecap:round;stroke-linejoin:round;}
	.st5{fill:none;stroke:#969696;stroke-width:1.25;stroke-linecap:round;stroke-linejoin:round;stroke-dasharray:12.5612,12.5612;}
	.st6{fill:none;stroke:#969696;stroke-width:1.25;stroke-linecap:round;stroke-linejoin:round;stroke-dasharray:11.164,11.164;}
	.st7{fill:#969696;}
	
		.st8{fill-rule:evenodd;clip-rule:evenodd;fill:none;stroke:#969696;stroke-width:1.25;stroke-linecap:round;stroke-linejoin:round;stroke-miterlimit:10;}
	.st9{fill:none;stroke:#969696;stroke-width:1.25;stroke-miterlimit:10;}
	.st10{clip-path:url(#SVGID_2_);}
	.st11{fill:#FFFFFF;stroke:#969696;stroke-width:1.5;stroke-linecap:round;stroke-linejoin:round;stroke-miterlimit:10;}
	
		.st12{fill-rule:evenodd;clip-rule:evenodd;fill:none;stroke:#969696;stroke-width:1.5;stroke-linecap:round;stroke-linejoin:round;stroke-miterlimit:10;}
	.st13{fill:#FFFFFF;}
	
		.st14{fill-rule:evenodd;clip-rule:evenodd;fill:#FFFFFF;stroke:#969696;stroke-width:1.5;stroke-linecap:round;stroke-linejoin:round;stroke-miterlimit:10;}
	.st15{fill:#FFFFFF;stroke:#959595;stroke-width:1.25;stroke-miterlimit:10;}
	.st16{fill:none;stroke:#959595;stroke-width:1.25;stroke-linecap:round;stroke-miterlimit:10;}
	.st17{fill:none;stroke:#959595;stroke-width:1.25;stroke-linecap:round;stroke-linejoin:round;stroke-miterlimit:10;}
	.st18{fill:none;stroke:#6E6E6F;stroke-linecap:round;stroke-linejoin:round;stroke-miterlimit:10;}
	.st19{fill:#FFFFFF;stroke:#969696;stroke-width:1.25;stroke-miterlimit:10;}
	.st20{fill:none;stroke:#969696;stroke-width:1.25;stroke-linecap:round;stroke-miterlimit:10;}
	.st21{fill:#FFFFFF;stroke:#969696;stroke-width:1.25;stroke-linecap:round;stroke-linejoin:round;}
	.st22{fill:none;stroke:#969696;stroke-miterlimit:10;}
	.st23{fill:none;stroke:#969696;stroke-width:1.25;stroke-linejoin:round;}
	.st24{fill:none;stroke:#969696;stroke-width:1.25;stroke-linejoin:round;stroke-dasharray:7.0485,7.0485;}
	.st25{fill:none;stroke:#969696;stroke-width:1.25;stroke-linejoin:round;stroke-miterlimit:10;}
	.st26{fill:none;stroke:#969696;stroke-width:1.25;stroke-linecap:round;stroke-linejoin:round;stroke-dasharray:5.207,5.207;}
	.st27{fill:none;stroke:#969696;stroke-width:1.5;stroke-linejoin:round;stroke-miterlimit:10;}
	.st28{fill:none;stroke:#969696;stroke-width:1.5;stroke-linecap:round;stroke-linejoin:round;}
	.st29{fill:none;stroke:#969696;stroke-width:1.5;stroke-linecap:round;stroke-linejoin:round;stroke-dasharray:4.9473,4.9473;}
	.st30{fill:#323232;}
	.st31{fill:none;stroke:#959595;stroke-width:1.5;stroke-linecap:round;stroke-linejoin:round;stroke-miterlimit:10;}
	.st32{fill:none;stroke:#959595;stroke-width:1.5;stroke-miterlimit:10;}
	.st33{fill:none;stroke:#959595;stroke-width:1.5;stroke-linecap:round;stroke-miterlimit:10;}
	.st34{fill:#FFFFFF;stroke:#959595;stroke-width:1.5;stroke-miterlimit:10;}
	.st35{display:none;}
	.st36{display:inline;opacity:0.2;fill:#FF00FF;}
</style>
<g id="Layer_1">
	<g id="Layer_2">
	</g>
	<g>
		<path class="st7" d="M422.5049,262.1401h-16.5664v-15.7844c8.7173-0.8342,17.1758-4.9374,17.1758-21.2728
			c0-6.3348-6.0283-18.2126-11.605-27.8489c1.4456-6.2584,2.1528-13.668,2.1528-22.6501c0-47.394-14.2568-70.4331-43.5859-70.4331
			c-21.9751,0-35.76,13.1644-40.9968,39.1144c-5.7368-3.0554-12.0767-5.1137-18.7903-5.9639V60.1958h4.3506
			c0.4141,0,0.75-0.3359,0.75-0.75V38.1909c0-0.4141-0.3359-0.75-0.75-0.75h-32.8438V20.7661c0-0.4141-0.3359-0.75-0.75-0.75
			h-12.1855c-0.4141,0-0.75,0.3359-0.75,0.75v16.6748H129.2979c-0.4141,0-0.75,0.3359-0.75,0.75v21.2549
			c0,0.4141,0.3359,0.75,0.75,0.75h4.3506v71.6691c-11.4253-21.6099-23.8508-41.1426-24.8096-42.6437
			c-0.2754-0.4316-0.9883-0.4316-1.2637,0c-1.8027,2.8228-44.1533,69.4058-44.1533,93.6655c0,1.8937,0.063,3.7197,0.168,5.4733
			c-0.2427-0.0047-0.481-0.0148-0.7275-0.0148c-9.8857,0-16.9004,3.8501-20.8496,11.4438
			c-3.5615,6.8496-3.9736,15.4697-3.9736,21.3574c0,15.1003,6.2913,22.9892,19.6553,24.5256v16.4681H21.4336
			c-0.4141,0-0.75,0.3359-0.75,0.75v10.666c0,0.4141,0.3359,0.75,0.75,0.75h401.0713c0.4141,0,0.75-0.3359,0.75-0.75v-10.666
			C423.2549,262.4761,422.9189,262.1401,422.5049,262.1401z M404.4385,262.1401h-5.5732v-15.6884
			c0.897,0.0594,1.8228,0.0931,2.7871,0.0931c0.9194,0,1.8516-0.0212,2.7861-0.0735V262.1401z M375.1069,262.1401l-0.5801-34.6116
			c1.9893-0.118,3.9004-0.315,5.7195-0.5931c0.5088,11.9034,6.01,18.1536,17.1189,19.3698v15.8349H375.1069z M330.3552,262.1401
			l4.5989-27.2651c5.0413-3.2646,9.3298-7.248,12.8215-11.7667c4.9929,2.491,10.9758,3.9642,17.8347,4.4049l-0.5652,34.627H330.3552
			z M303.4824,243.9312c3.4775,0,6.9434-0.2915,10.3154-0.8667l1.9727,8.4097h-25.5576v-8.4844
			C294.5676,243.6118,299.0059,243.9312,303.4824,243.9312z M288.7129,251.4741h-7.6238l2.2068-9.7427
			c1.7866,0.3998,3.5947,0.7402,5.417,1.0316V251.4741z M280.7495,252.9741h35.373l2.1501,9.166h-39.5994L280.7495,252.9741z
			 M319.814,262.1401l-4.7173-20.1094c-0.0918-0.3892-0.4756-0.6353-0.8652-0.5664c-3.5039,0.6416-7.1201,0.9668-10.749,0.9668
			c-7.0186,0-13.9434-0.7837-20.582-2.3286c-0.1914-0.0444-0.3994-0.0103-0.5684,0.0947c-0.1689,0.106-0.2891,0.2754-0.333,0.4702
			l-4.8638,21.4727h-8.168l-5.647-33.1353c-0.043-0.2549-0.2148-0.4697-0.4541-0.5679
			c-11.2959-4.6357-18.8926-10.8291-24.9971-15.8052c-6.4443-5.2534-11.5762-9.4375-18.333-10.0645
			c-0.5664-9.4917-0.8213-19.6846-0.3301-21.7319c1.5322-0.0322,6.459-0.1475,9.4541-0.3359
			c2.3906-0.1509,4.8994-3.2812,8.6973-8.0205c3.2422-4.0459,7.2783-9.0815,12.6787-14.0898
			c0.2168-0.2002,0.2949-0.5088,0.2012-0.7881c-1.6963-5.062-4.6973-13.0962-9.4609-23.0156
			c11.5938,0.6157,20.7461,9.8672,23.3398,12.7705c0.2324,0.2603,0.6123,0.3242,0.9199,0.1582
			c11.1191-6.082,24.0117-9.166,38.3193-9.166c29.4521,0,53.4131,23.9609,53.4131,53.4131c0,17.4102-8.3477,32.73-22.9033,42.0303
			c-0.1777,0.1138-0.2998,0.2983-0.335,0.5073l-4.6956,27.8413H319.814z M113.1138,262.1401l-0.6133-34.5726
			c8.4409-0.3816,15.4602-1.9031,21.1479-4.6085v28.5151h-12.415c-0.4141,0-0.75,0.3359-0.75,0.75v9.916H113.1138z
			 M68.0303,262.1401V245.687c15.3735-1.7397,18.9497-11.4323,19.5498-21.0018c4.6785,1.6024,10.1252,2.5678,16.2241,2.8717
			l-0.647,34.5833H68.0303z M105.9863,191.1074h4.3672l1.2598,71.0327h-6.9556L105.9863,191.1074z M121.9834,252.9741h143.9001
			l1.5623,9.166H121.9834V252.9741z M189.833,217.9072h18.5752v33.5669H189.833V217.9072z M248.5818,222.5683
			c-0.0051,0.0359-0.0212,0.0681-0.0212,0.1055v28.8003h-18.5762v-33.5669h12.084
			C244.0574,219.4417,246.2136,221.0146,248.5818,222.5683z M261.9111,229.6655l3.7168,21.8086h-15.5674v-27.9581
			C253.5208,225.6877,257.4192,227.7947,261.9111,229.6655z M228.4844,251.4741h-18.5762v-33.5669h18.5762V251.4741z
			 M367.1091,227.6029c0.9744,0.0405,1.9592,0.068,2.967,0.068c0.9998,0,1.9839-0.0195,2.9519-0.0566l0.5784,34.5258h-7.0608
			L367.1091,227.6029z M401.6523,245.0449c-13.8057,0-19.9619-6.1562-19.9619-19.9619c0-9.9761,16.5186-35.6992,19.9619-40.9517
			c3.4434,5.2524,19.9619,30.9741,19.9619,40.9517C421.6143,234.9541,419.2422,245.0449,401.6523,245.0449z M370.0762,105.6509
			c28.3193,0,42.0859,22.5483,42.0859,68.9331c0,8.1211-0.5847,14.9227-1.7725,20.7332
			c-4.1328-7.0042-7.7622-12.4398-8.1143-12.9646c-0.2793-0.415-0.9668-0.415-1.2461,0
			c-0.8506,1.2686-20.8389,31.1963-20.8389,42.7305c0,0.1184,0.0095,0.2261,0.0103,0.3435
			c-3.1172,0.4879-6.5122,0.7444-10.1245,0.7444c-8.3975,0-15.5701-1.45-21.3677-4.2793
			c6.1899-8.5423,9.5601-18.9133,9.5601-30.1304c0-1.3276-0.064-2.6398-0.1572-3.9442c2.1973,2.4132,4.5369,3.0447,6.3828,3.0447
			c1.1006,0,2.0264-0.2246,2.6406-0.4292c0.6191-0.2065,1.2139-0.479,1.7725-0.8042c1.1094,0.4854,2.2998,0.7905,3.4854,0.8623
			c3.0518,0.1733,5.6719-1.1812,7.3428-3.8462c0.2197-0.3511,0.1133-0.814-0.2373-1.0342
			c-0.3525-0.2197-0.8145-0.1128-1.0342,0.2373c-1.75,2.7925-4.2207,3.2534-5.9814,3.1455
			c-0.7021-0.0425-1.4121-0.1851-2.1016-0.4102c1.9756-1.6855,3.2188-4.0532,3.0498-6.2329
			c-0.1816-2.3457-1.6084-4.1768-3.7217-4.7783c-2.0176-0.5762-4.0645,0.1587-5.3486,1.9121
			c-1.2051,1.646-1.3682,3.6196-0.458,5.5566c0.6865,1.459,1.9082,2.7583,3.3975,3.7231c-0.209,0.0913-0.4219,0.1733-0.6387,0.2456
			c-1.9277,0.6436-5.6309,0.98-8.7803-3.9746c-0.0122-0.019-0.0315-0.0293-0.0449-0.0469
			c-2.1709-17.5561-12.6528-32.5632-27.3831-40.9587C335.5232,118.2102,348.4851,105.6509,370.0762,105.6509z M368.8076,187.9082
			c-1.5674-0.8418-2.8848-2.0962-3.5469-3.5054c-0.4717-1.0029-0.7998-2.5166,0.3105-4.0332
			c0.7021-0.9595,1.7227-1.4868,2.7979-1.4868c0.3066,0,0.6191,0.0435,0.9287,0.1313c1.1709,0.3335,2.4795,1.4155,2.6367,3.4521
			C372.082,184.3604,370.7627,186.5176,368.8076,187.9082z M303.3555,136.8481c-14.3398,0-27.2959,3.0508-38.5195,9.0684
			c-3.2617-3.5371-13.0322-12.8633-25.2705-12.8633c-0.2588,0-0.499,0.1333-0.6357,0.3521
			c-0.1377,0.2192-0.1514,0.4937-0.0391,0.7261c4.8965,10.0601,7.9971,18.2554,9.7705,23.4893
			c-5.3037,4.9727-9.2715,9.9248-12.4746,13.9204c-3.292,4.1079-5.8916,7.3525-7.6201,7.4614
			c-3.5303,0.2227-9.7949,0.3418-9.8574,0.3428c-0.1787,0.0034-0.3506,0.0708-0.4844,0.1895
			c-1.2588,1.1182-0.7744,13.5474-0.1465,23.7773c0.0234,0.3794,0.3271,0.6812,0.7061,0.7031
			c6.6035,0.3774,11.6934,4.5264,18.1377,9.7793c1.0308,0.8403,2.1079,1.7169,3.2334,2.6128H189.833V98.9531h118.9561v38.1659
			C307.001,136.9426,305.1892,136.8481,303.3555,136.8481z M269.6104,21.5161h10.6855v15.9248h-10.6855V21.5161z M130.0479,38.9409
			h183.8418v19.7549H130.0479V38.9409z M308.7891,60.1958v37.2573H135.1484V60.1958H308.7891z M135.1484,98.9531h53.1846v152.521
			h-53.1846v-29.28c4.0657-2.1777,7.4097-5.0037,10.0459-8.5178c5.3203-7.0918,7.7979-16.8755,7.7979-30.7896
			c0-10.7912-8.3806-29.9557-17.8438-48.1586V98.9531z M64.9219,182.8867c0-22.2402,37.8906-83.2822,43.2852-91.8579
			c5.3945,8.5752,43.2852,69.6162,43.2852,91.8579c0,20.4924-4.6724,41.5992-39.0186,43.1784l-0.6338-35.7209
			c-0.0078-0.4092-0.3408-0.7368-0.75-0.7368H105.25c-0.4092,0-0.7422,0.3271-0.75,0.7358l-0.668,35.7128
			c-6.1194-0.308-11.5559-1.2919-16.1782-2.9303c0.021-0.6633,0.0317-1.3242,0.0317-1.9792c0-21.0621-7.4004-31.7881-22.5911-32.726
			C64.9856,186.6525,64.9219,184.8041,64.9219,182.8867z M39.5391,221.1465c0-13.437,2.418-31.3013,23.3232-31.3013
			c15.6943,0,23.3232,10.2388,23.3232,31.3013c0,11.5332-2.7705,23.3232-23.3232,23.3232
			C46.7324,244.4697,39.5391,237.2764,39.5391,221.1465z M59.1943,245.8185c1.1772,0.0906,2.3879,0.1512,3.668,0.1512
			c1.2893,0,2.5071-0.0495,3.668-0.1376v16.308h-7.3359V245.8185z M421.7549,272.8062H22.1836v-9.166h90.1934h0.0137h253.3799
			c0.0049,0,0.0088,0,0.0127,0h8.5859c0.0039,0,0.0078,0,0.0127,0h47.373V272.8062z"/>
		<path class="st7" d="M171.9326,188.9492h6.8594c0.4141,0,0.75-0.3359,0.75-0.75s-0.3359-0.75-0.75-0.75h-6.8594
			c-0.4141,0-0.75,0.3359-0.75,0.75S171.5186,188.9492,171.9326,188.9492z"/>
		<path class="st7" d="M219.46,120.8247l-8.585,8.5854c-0.293,0.293-0.293,0.7676,0,1.0605
			c0.1465,0.1465,0.3379,0.2197,0.5303,0.2197s0.3838-0.0732,0.5303-0.2197l8.585-8.5854c0.293-0.293,0.293-0.7676,0-1.0605
			S219.7529,120.5317,219.46,120.8247z"/>
		<path class="st7" d="M217.3828,109.8882c-0.293-0.293-0.7676-0.293-1.0605,0l-16.8359,16.8359c-0.293,0.293-0.293,0.7676,0,1.0605
			c0.1465,0.1465,0.3379,0.2197,0.5303,0.2197s0.3838-0.0732,0.5303-0.2197l16.8359-16.8359
			C217.6758,110.6558,217.6758,110.1812,217.3828,109.8882z"/>
		<path class="st7" d="M58.1387,114.9878c4.8721,0,8.8359-3.9634,8.8359-8.8354c0-4.8716-3.9639-8.835-8.8359-8.835
			c-0.0176,0-0.0352,0.0005-0.0537,0.002l-3.6318,0.2593c0.041-3.2842-0.9746-6.1211-2.9629-8.2461
			c-2.1797-2.3291-5.3848-3.6118-9.0264-3.6118c-3.8359,0-7.5459,1.6284-9.9229,4.3564c-1.8887,2.166-2.8193,4.8945-2.6719,7.7715
			l-2.9502-0.52c-0.043-0.0073-0.0859-0.0112-0.1299-0.0112c-4.8721,0-8.8359,3.9634-8.8359,8.835
			c0,4.8721,3.9639,8.8354,8.8359,8.8354H58.1387z M19.4531,106.1523c0-4.0229,3.2568-7.2998,7.2715-7.3345l3.8535,0.6792
			c0.2334,0.041,0.4775-0.0322,0.6504-0.1987c0.1729-0.166,0.2549-0.4048,0.2227-0.6426c-0.4961-3.6006,0.9336-6.1167,2.2207-7.5933
			c2.0967-2.4058,5.3838-3.8418,8.792-3.8418c3.2217,0,6.0381,1.1138,7.9307,3.1367c1.8682,1.9971,2.7432,4.7559,2.5283,7.979
			c-0.0146,0.2163,0.0654,0.4282,0.2188,0.5815c0.1543,0.1528,0.3564,0.2305,0.583,0.2163l4.4404-0.3169
			c4.0332,0.0142,7.3096,3.2993,7.3096,7.335c0,4.0449-3.291,7.3354-7.3359,7.3354H26.7891
			C22.7441,113.4878,19.4531,110.1973,19.4531,106.1523z"/>
		<path class="st7" d="M419.249,54.0176c-0.001,0-0.002,0-0.002,0c-1.5703-0.0806-2.7002,0.123-3.4639,0.3667l0.0615-1.2896
			c0-7.0781-5.7588-12.8369-12.8369-12.8369c-3.1689,0-6.2393,1.2046-8.5957,3.3403c-2.373-6.0825-8.0889-10.0889-14.5762-10.0889
			c-8.6504,0-15.6875,6.8823-15.6875,15.3501c0.0215,2.0161,0.2656,3.5605,0.4834,4.5483c-0.457-0.0498-1.043-0.082-1.7959-0.0825
			c-2.9785-0.0918-5.6748,0.9868-7.8604,3.1069c-2.6357,2.5576-4.21,6.4536-4.21,10.4219c0,7.0786,5.7588,12.8374,12.8369,12.8374
			h55.6064c7.0791,0,12.8379-5.7588,12.8379-12.8374C432.0469,59.7759,426.2891,54.0176,419.249,54.0176z M419.209,78.1914h-55.6064
			c-6.251,0-11.3369-5.0859-11.3369-11.3374c0-3.5708,1.4033-7.0645,3.7549-9.3452c1.8174-1.7627,4.0547-2.6885,6.4873-2.6885
			c0.0977,0,0.1953,0.0015,0.2939,0.0044c0.0068,0.0005,0.0146,0.0005,0.0225,0.0005c1.9521,0,2.4512,0.2222,2.4248,0.1973
			c0.2695,0.1875,0.625,0.1792,0.8857-0.019c0.2607-0.1992,0.3613-0.5444,0.249-0.8521c-0.0068-0.0195-0.6992-1.9692-0.7354-5.3003
			c0-7.5029,6.4971-13.8418,14.1875-13.8418c7.1904,0,11.9834,5.1138,13.5439,10.1816c0.0791,0.2573,0.29,0.4521,0.5527,0.5112
			c0.2607,0.0581,0.5371-0.0273,0.7178-0.2266c2.1562-2.3628,5.2031-3.7178,8.3574-3.7178c6.251,0,11.3369,5.0859,11.3379,11.3013
			l-0.1191,2.4902c-0.0137,0.29,0.1465,0.5576,0.4033,0.6938c0.2559,0.1362,0.5742,0.1079,0.8057-0.0664
			c0.0117-0.0078,1.1006-0.7959,3.7734-0.6602c6.252,0,11.3379,5.0859,11.3379,11.3374S425.4609,78.1914,419.209,78.1914z"/>
		<path class="st7" d="M265.2139,181.8994c-0.4141,0-0.75,0.3359-0.75,0.75c0,3.1519-2.5645,5.7158-5.7158,5.7158
			s-5.7158-2.564-5.7158-5.7158c0-0.4141-0.3359-0.75-0.75-0.75s-0.75,0.3359-0.75,0.75c0,3.979,3.2373,7.2158,7.2158,7.2158
			s7.2158-3.2368,7.2158-7.2158C265.9639,182.2354,265.6279,181.8994,265.2139,181.8994z"/>
		<path class="st7" d="M316.4883,152.9453h-29.335c-0.4141,0-0.75,0.3359-0.75,0.75s0.3359,0.75,0.75,0.75h29.335
			c0.4141,0,0.75-0.3359,0.75-0.75S316.9023,152.9453,316.4883,152.9453z"/>
	</g>
</g>
<g id="Layer_3" class="st35">
</g>
</svg>
